<!-- php database -->


iniciar host local: php -S localhost:8000 atividade.php 

<!-- PARA DEBUG USE ESTES -->
var-dump($a); <!-- INSPECIONA A VARIAVEL -->
print_r($a);  <!-- IMPRIME O QUE ESTA DENTRO VC PODE CONCATENAR COM UM '.' -->
die;			<!-- FUNÇÃO BREAK -->
echo '<pre>';  